﻿{
    "graphqlEndpoint": "https://lptlqlmwqjdmlbzhevamvh5u6q.appsync-api.eu-west-1.amazonaws.com/graphql",
    "region": "eu-west-1",
    "authenticationType": "API_KEY",
    "apiKey": "da2-udyy4w6xx5dgnmwcopzk7jx6fa"
}